RU24 - Program Started.
Requesting to engine...
TOP-GAME
- RU24 TEAM
-- RU24 Minimalisma Launcher
Engine started
Detected signature for "REPOSITORIES_SERVERS". Install it...
Signature installed
Detected signature for "REPOSITORIES_MODS". Install it...
Signature installed
Enabling visual styles for forms
Set compatible text rendering to false
Creating MainWindow
MainWindow created, set up events
Events setted
Set up events for Application
Events setted
Loading Plugins/Addons
Plugins loader
Warning! Plugins can be reason for application exit with error
LOL
Addon  start loading now at version 
L-L
All plugins are loaded
Loading completed on 1 683
Running MainWindow with Application base
CLOSING...
!warn_lib_hacked
CLOSED!
Exiting command, save parametrs
Save paramets to localuser
Ready to exit, leave...
